…
This dataset contains 2,595,176 observations and 7 variables. The
variables include station id, date, precipitation, snowfall, snow depth,
and the minimum and maximum temperatures. Next, we are going to create
separate variables for year, month, and day and make are that the
variables are in reasonable units.

0 is the most commonly observed values for snowfall.

``` r
ny_noaa %>% 
  count(snow) %>%
  arrange(desc(n))
```

    ## # A tibble: 282 × 2
    ##     snow       n
    ##    <int>   <int>
    ##  1     0 2008508
    ##  2    NA  381221
    ##  3    25   31022
    ##  4    13   23095
    ##  5    51   18274
    ##  6    76   10173
    ##  7     8    9962
    ##  8     5    9748
    ##  9    38    9197
    ## 10     3    8790
    ## # ℹ 272 more rows
…
Merging participant and accelerometer dataset.

``` r
anti_join(demo_df, accel_df, by ="SEQN")
```

    ## # A tibble: 0 × 5
    ## # ℹ 5 variables: SEQN <dbl>, sex <chr>, age <dbl>, BMI <dbl>, education <chr>

``` r
anti_join(accel_df, demo_df, by ="SEQN")
```

    ## # A tibble: 33,120 × 3
    ##     SEQN minutes MIMS_unit
    ##    <dbl> <chr>       <dbl>
    ##  1 62161 1           1.11 
    ##  2 62161 2           3.12 
    ##  3 62161 3           1.47 
    ##  4 62161 4           0.938
    ##  5 62161 5           1.60 
    ##  6 62161 6           0.145
    ##  7 62161 7           2.10 
    ##  8 62161 8           0.509
    ##  9 62161 9           1.63 
    ## 10 62161 10          1.20 
    ## # ℹ 33,110 more rows
…
